<?xml version="1.0" encoding="utf-8"?>
<!-- Generator: Adobe Illustrator 17.0.0, SVG Export Plug-In . SVG Version: 6.00 Build 0)  -->
<!DOCTYPE svg PUBLIC "-//W3C//DTD SVG 1.1//EN" "http://www.w3.org/Graphics/SVG/1.1/DTD/svg11.dtd">
<svg version="1.1" id="Capa_1" xmlns="http://www.w3.org/2000/svg" xmlns:xlink="http://www.w3.org/1999/xlink" x="0px" y="0px"
	 width="122px" height="64.333px" viewBox="0 0 122 64.333" enable-background="new 0 0 122 64.333" xml:space="preserve">
<g>
	<path fill="#FFFFFF" d="M0.993,40.804c-0.146-0.186-0.193-0.402-0.141-0.649l7.08-37.768C7.984,2.14,8.123,1.924,8.348,1.738
		C8.572,1.552,8.808,1.46,9.056,1.46h6.429c0.247,0,0.444,0.092,0.59,0.278c0.147,0.185,0.194,0.402,0.141,0.649l-7.08,37.768
		c-0.053,0.247-0.191,0.463-0.416,0.649c-0.224,0.185-0.46,0.278-0.707,0.278H1.584C1.336,41.082,1.14,40.989,0.993,40.804
		 M22.243,44.455c-0.18-0.226-0.238-0.484-0.177-0.773l3.148-14.898c0.069-0.33,0.022-0.597-0.14-0.803
		c-0.163-0.206-0.409-0.309-0.739-0.309h-7.444c-0.289,0-0.523-0.113-0.701-0.34c-0.179-0.226-0.238-0.484-0.177-0.773l1.111-5.254
		c0.069-0.33,0.239-0.597,0.51-0.804c0.27-0.205,0.549-0.309,0.838-0.309h7.444c0.33,0,0.621-0.113,0.875-0.34
		c0.254-0.226,0.412-0.484,0.473-0.773L30.75,2.573c0.061-0.288,0.228-0.546,0.503-0.773c0.274-0.225,0.556-0.34,0.845-0.34h6.305
		c0.288,0,0.521,0.114,0.701,0.34c0.178,0.227,0.237,0.485,0.176,0.773l-8.684,41.109c-0.061,0.289-0.219,0.547-0.472,0.773
		c-0.254,0.227-0.546,0.34-0.875,0.34h-6.305C22.655,44.795,22.42,44.682,22.243,44.455"/>
	<path fill="#FFFFFF" d="M82.33,21.731c-0.464-0.321-1.176-0.481-2.137-0.481H67.396c-0.321,0-0.622,0.12-0.905,0.36
		c-0.283,0.241-0.452,0.521-0.51,0.842l-0.773,4.386c-0.057,0.32,0.015,0.601,0.212,0.841c0.198,0.24,0.456,0.36,0.777,0.36h5.684
		c0.94,0,1.467,1.058,0.929,1.828c-1.348,1.929-2.981,3.533-4.899,4.81c-2.496,1.664-5.205,2.493-8.129,2.493
		c-2.524,0-4.756-0.631-6.696-1.892c-1.94-1.263-3.351-2.974-4.231-5.138c-0.88-2.162-1.097-4.505-0.652-7.028
		c0.445-2.523,1.488-4.866,3.13-7.029c1.644-2.163,3.658-3.875,6.043-5.137c2.166-1.146,4.39-1.765,6.671-1.87
		c0.053-0.002,0.109-0.002,0.162,0c1.918,0.089,3.662,0.553,5.229,1.4c0.478,0.259,1.071,0.127,1.413-0.296
		c0.949-1.177,2.76-3.433,3.831-4.768c0.451-0.561,0.28-1.396-0.358-1.731c-1.055-0.555-2.59-1.301-3.73-1.608
		c-2.133-0.573-4.199-0.85-6.401-0.675c-2.186,0.173-4.342,0.651-6.4,1.407c-1.084,0.399-2.142,0.873-3.164,1.412
		c-3.686,1.944-6.797,4.587-9.329,7.93c-2.532,3.345-4.147,6.999-4.847,10.965c-0.699,3.965-0.372,7.62,0.981,10.964
		c1.352,3.345,3.53,5.988,6.531,7.93c3.002,1.943,6.486,2.914,10.451,2.914c3.925,0,7.629-0.971,11.118-2.914
		c3.486-1.942,6.404-4.575,8.751-7.901c2.349-3.323,3.876-6.987,4.583-10.993C82.973,22.512,82.793,22.052,82.33,21.731"/>
	<path fill="#FFFFFF" d="M104.922,15.14c-5.06-5.139-13.587-8.072-13.587-8.072c-0.034,0.162-1.768,8.365-3.592,17.003
		C93.986,22.431,100.757,19.43,104.922,15.14"/>
	<path fill="#FFFFFF" d="M120.009,8.711c-0.788-2.118-2.099-3.795-3.937-5.029c-1.839-1.235-3.991-1.852-6.46-1.852H93.552
		c-0.288,0-0.57,0.114-0.844,0.339c-0.201,0.167-0.487,0.589-0.578,0.81c7.357,1.49,16.404,5.58,22.933,12.064
		c-2.783,3.155-14.233,12.689-28.252,13.549c-1.827,8.651-3.274,15.39-3.274,15.39c-0.062,0.288-0.003,0.546,0.177,0.772
		c0.178,0.227,0.411,0.34,0.699,0.34h4.752c0.329,0,0.628-0.103,0.898-0.308c0.269-0.205,0.439-0.472,0.51-0.803l2.233-10.576
		c22.788-2.888,27.393-14.52,27.88-17.538C121.087,13.377,120.795,10.831,120.009,8.711"/>
	<path fill="#FFFFFF" d="M41.039,63.274c-0.751,0-1.447-0.128-2.088-0.382c-0.641-0.255-1.207-0.647-1.699-1.175l1.245-1.223
		c0.4,0.408,0.824,0.721,1.275,0.938c0.447,0.218,0.973,0.327,1.576,0.327c0.528,0,0.966-0.114,1.318-0.34
		c0.351-0.227,0.558-0.521,0.621-0.883l0.006-0.028c0.03-0.176,0.028-0.331-0.008-0.465c-0.035-0.135-0.125-0.261-0.267-0.382
		c-0.14-0.12-0.343-0.231-0.608-0.334c-0.266-0.102-0.616-0.203-1.053-0.305c-0.497-0.12-0.934-0.257-1.31-0.41
		c-0.378-0.153-0.682-0.337-0.918-0.556c-0.234-0.218-0.397-0.485-0.485-0.799c-0.088-0.315-0.092-0.694-0.014-1.139l0.004-0.028
		c0.075-0.417,0.225-0.799,0.452-1.146c0.227-0.347,0.51-0.644,0.846-0.889c0.335-0.245,0.719-0.438,1.152-0.577
		c0.431-0.139,0.889-0.208,1.371-0.208c0.714,0,1.338,0.104,1.871,0.313c0.535,0.208,1.016,0.512,1.447,0.909l-1.147,1.293
		c-0.388-0.324-0.783-0.572-1.189-0.744c-0.407-0.171-0.833-0.256-1.278-0.256c-0.501,0-0.909,0.11-1.226,0.333
		c-0.319,0.223-0.506,0.496-0.563,0.82l-0.006,0.028c-0.032,0.186-0.027,0.35,0.011,0.493c0.04,0.144,0.137,0.274,0.292,0.389
		c0.157,0.117,0.375,0.225,0.653,0.326c0.278,0.102,0.644,0.209,1.098,0.32c0.486,0.129,0.911,0.273,1.273,0.431
		c0.36,0.158,0.655,0.351,0.878,0.577c0.225,0.227,0.375,0.491,0.452,0.792c0.076,0.301,0.08,0.651,0.01,1.049l-0.004,0.028
		c-0.08,0.454-0.239,0.862-0.474,1.223c-0.236,0.361-0.528,0.667-0.878,0.917c-0.35,0.25-0.751,0.44-1.198,0.57
		C42.029,63.208,41.549,63.274,41.039,63.274"/>
	<path fill="#FFFFFF" d="M47.786,53.407h3.84c0.565,0,1.063,0.077,1.495,0.229c0.434,0.153,0.783,0.373,1.053,0.66
		c0.268,0.287,0.454,0.629,0.555,1.028c0.102,0.398,0.109,0.844,0.022,1.334l-0.004,0.028c-0.097,0.547-0.283,1.027-0.56,1.439
		c-0.277,0.413-0.615,0.757-1.018,1.035c-0.4,0.277-0.85,0.489-1.349,0.633c-0.498,0.142-1.016,0.215-1.553,0.215h-1.933
		l-0.551,3.127H46.07L47.786,53.407z M50.596,58.452c0.649,0,1.191-0.162,1.624-0.485c0.431-0.322,0.691-0.737,0.781-1.245
		l0.006-0.027c0.1-0.572-0.014-1.004-0.342-1.294c-0.329-0.291-0.812-0.436-1.453-0.436h-1.989l-0.615,3.488H50.596z"/>
	<path fill="#FFFFFF" d="M59.491,63.302c-0.752,0-1.415-0.133-1.989-0.396c-0.575-0.264-1.045-0.623-1.41-1.077
		c-0.365-0.454-0.619-0.985-0.763-1.59c-0.143-0.607-0.153-1.253-0.032-1.939l0.004-0.028c0.122-0.686,0.36-1.332,0.717-1.939
		c0.358-0.606,0.803-1.139,1.339-1.598c0.535-0.459,1.137-0.823,1.805-1.091c0.67-0.269,1.379-0.403,2.13-0.403
		s1.414,0.132,1.989,0.396c0.573,0.263,1.043,0.622,1.409,1.077c0.365,0.454,0.62,0.985,0.763,1.592
		c0.143,0.606,0.154,1.253,0.035,1.938l-0.006,0.028c-0.122,0.685-0.36,1.332-0.718,1.938c-0.357,0.607-0.803,1.14-1.338,1.597
		c-0.536,0.459-1.138,0.823-1.806,1.092C60.951,63.167,60.242,63.302,59.491,63.302 M59.798,61.717c0.483,0,0.941-0.091,1.377-0.271
		c0.434-0.181,0.823-0.425,1.164-0.731c0.342-0.306,0.63-0.668,0.865-1.086c0.237-0.418,0.397-0.863,0.481-1.337l0.004-0.028
		c0.084-0.474,0.082-0.922-0.007-1.344c-0.089-0.423-0.25-0.789-0.487-1.102c-0.238-0.31-0.544-0.559-0.919-0.744
		c-0.376-0.186-0.805-0.279-1.285-0.279c-0.483,0-0.942,0.09-1.377,0.271c-0.436,0.181-0.826,0.428-1.166,0.738
		c-0.343,0.311-0.633,0.676-0.868,1.093c-0.236,0.418-0.396,0.863-0.478,1.337l-0.006,0.028c-0.084,0.473-0.082,0.918,0.007,1.337
		c0.088,0.418,0.252,0.784,0.487,1.099c0.237,0.316,0.543,0.564,0.92,0.745C58.887,61.626,59.315,61.717,59.798,61.717"/>
	<path fill="#FFFFFF" d="M67.924,53.407h4.341c0.612,0,1.138,0.085,1.582,0.257c0.444,0.172,0.795,0.409,1.055,0.716
		c0.214,0.268,0.357,0.579,0.434,0.931c0.077,0.352,0.079,0.741,0.004,1.167l-0.006,0.028c-0.14,0.797-0.469,1.438-0.987,1.925
		c-0.515,0.485-1.131,0.827-1.842,1.021l1.98,3.683h-2.032l-1.794-3.391H68.52l-0.598,3.391H66.21L67.924,53.407z M71.29,58.23
		c0.612,0,1.124-0.146,1.538-0.439c0.413-0.291,0.665-0.687,0.752-1.188l0.004-0.027c0.094-0.529-0.012-0.929-0.315-1.202
		c-0.305-0.273-0.777-0.409-1.417-0.409h-2.49l-0.576,3.266H71.29z"/>
	<polygon fill="#FFFFFF" points="79.609,54.991 76.522,54.991 76.801,53.407 84.701,53.407 84.422,54.991 81.334,54.991 
		79.898,63.135 78.173,63.135 	"/>
</g>
<g>
	<path fill="#2249B6" d="M6.875,173.171c-0.133-0.17-0.176-0.367-0.129-0.593l6.461-34.465c0.048-0.225,0.174-0.423,0.379-0.592
		c0.205-0.17,0.42-0.254,0.646-0.254h5.867c0.225,0,0.405,0.084,0.538,0.254c0.134,0.169,0.177,0.367,0.129,0.592l-6.461,34.465
		c-0.048,0.225-0.174,0.423-0.379,0.593c-0.204,0.169-0.42,0.254-0.646,0.254H7.413C7.188,173.425,7.008,173.34,6.875,173.171
		 M26.266,176.503c-0.164-0.206-0.217-0.442-0.162-0.705l2.872-13.595c0.063-0.301,0.02-0.545-0.127-0.733
		c-0.149-0.188-0.373-0.282-0.674-0.282h-6.793c-0.264,0-0.478-0.103-0.64-0.31c-0.163-0.206-0.217-0.442-0.162-0.705l1.013-4.794
		c0.063-0.301,0.218-0.545,0.465-0.734c0.246-0.187,0.501-0.282,0.765-0.282h6.793c0.301,0,0.567-0.103,0.799-0.31
		c0.232-0.206,0.376-0.442,0.432-0.705l3.182-15.062c0.056-0.263,0.208-0.498,0.459-0.705c0.25-0.206,0.507-0.31,0.771-0.31h5.754
		c0.263,0,0.476,0.104,0.64,0.31c0.163,0.208,0.216,0.443,0.161,0.705l-7.925,37.514c-0.056,0.264-0.199,0.499-0.431,0.705
		c-0.232,0.207-0.498,0.31-0.799,0.31h-5.754C26.642,176.813,26.428,176.71,26.266,176.503"/>
	<path fill="#2249B6" d="M83.217,159.46c-0.423-0.293-1.073-0.439-1.95-0.439H69.589c-0.293,0-0.568,0.109-0.826,0.328
		c-0.258,0.22-0.413,0.475-0.465,0.768l-0.705,4.003c-0.052,0.292,0.013,0.548,0.194,0.767c0.181,0.219,0.416,0.329,0.709,0.329
		h5.187c0.858,0,1.339,0.965,0.847,1.668c-1.23,1.761-2.72,3.224-4.471,4.389c-2.277,1.518-4.75,2.275-7.418,2.275
		c-2.303,0-4.34-0.575-6.11-1.726c-1.77-1.152-3.058-2.714-3.861-4.688c-0.803-1.973-1.001-4.111-0.595-6.414
		c0.406-2.303,1.358-4.44,2.857-6.414c1.501-1.974,3.338-3.536,5.514-4.688c1.977-1.046,4.006-1.61,6.088-1.706
		c0.049-0.002,0.099-0.002,0.148,0c1.75,0.081,3.342,0.505,4.772,1.278c0.436,0.236,0.977,0.115,1.289-0.27
		c0.866-1.074,2.519-3.132,3.496-4.351c0.411-0.512,0.256-1.274-0.327-1.58c-0.963-0.507-2.364-1.188-3.404-1.468
		c-1.947-0.522-3.832-0.776-5.841-0.616c-1.995,0.158-3.963,0.594-5.841,1.284c-0.989,0.364-1.955,0.797-2.888,1.289
		c-3.364,1.774-6.203,4.186-8.513,7.236c-2.311,3.052-3.785,6.387-4.423,10.006c-0.638,3.618-0.339,6.954,0.895,10.005
		c1.234,3.052,3.221,5.465,5.96,7.236c2.739,1.773,5.919,2.659,9.537,2.659c3.582,0,6.962-0.886,10.145-2.659
		c3.181-1.772,5.844-4.175,7.986-7.21c2.144-3.033,3.537-6.376,4.182-10.032C83.804,160.173,83.639,159.753,83.217,159.46"/>
	<path fill="#2249B6" d="M101.716,149.752c-4.618-4.69-12.399-7.366-12.399-7.366c-0.031,0.148-1.613,7.634-3.278,15.516
		C91.736,156.405,97.915,153.667,101.716,149.752"/>
	<path fill="#2249B6" d="M115.484,143.885c-0.719-1.933-1.915-3.464-3.592-4.589c-1.678-1.127-3.642-1.69-5.895-1.69H91.34
		c-0.263,0-0.52,0.104-0.77,0.31c-0.184,0.152-0.445,0.538-0.528,0.74c6.713,1.36,14.97,5.092,20.928,11.009
		c-2.54,2.879-12.989,11.58-25.782,12.364c-1.667,7.895-2.988,14.044-2.988,14.044c-0.056,0.263-0.003,0.498,0.162,0.704
		c0.162,0.207,0.375,0.31,0.638,0.31h4.337c0.3,0,0.573-0.094,0.82-0.281c0.245-0.187,0.401-0.431,0.465-0.733l2.038-9.651
		c20.795-2.635,24.998-13.251,25.442-16.004C116.468,148.143,116.201,145.819,115.484,143.885"/>
	<path fill="#929B9B" d="M43.419,193.677c-0.685,0-1.321-0.117-1.905-0.349c-0.585-0.233-1.102-0.59-1.55-1.072l1.136-1.116
		c0.365,0.372,0.752,0.658,1.164,0.856c0.408,0.199,0.888,0.298,1.438,0.298c0.482,0,0.882-0.104,1.203-0.31
		c0.321-0.208,0.509-0.476,0.567-0.806l0.005-0.025c0.028-0.161,0.025-0.302-0.008-0.425c-0.032-0.123-0.114-0.239-0.244-0.349
		c-0.128-0.11-0.313-0.211-0.555-0.305c-0.243-0.093-0.562-0.186-0.961-0.278c-0.454-0.11-0.853-0.235-1.196-0.374
		c-0.345-0.14-0.622-0.308-0.837-0.507c-0.214-0.199-0.362-0.442-0.443-0.729c-0.08-0.287-0.084-0.634-0.013-1.039l0.004-0.026
		c0.068-0.38,0.205-0.729,0.413-1.046c0.208-0.317,0.465-0.587,0.772-0.811c0.305-0.223,0.656-0.399,1.051-0.526
		c0.394-0.127,0.811-0.19,1.251-0.19c0.651,0,1.221,0.095,1.708,0.285c0.488,0.19,0.927,0.467,1.321,0.83l-1.047,1.18
		c-0.354-0.296-0.715-0.522-1.085-0.679c-0.371-0.156-0.76-0.233-1.166-0.233c-0.457,0-0.83,0.1-1.119,0.304
		c-0.291,0.203-0.462,0.452-0.514,0.748l-0.005,0.025c-0.03,0.17-0.025,0.319,0.01,0.45c0.037,0.131,0.125,0.25,0.267,0.355
		c0.143,0.107,0.342,0.205,0.596,0.298c0.254,0.093,0.588,0.191,1.002,0.292c0.444,0.118,0.831,0.249,1.162,0.393
		c0.328,0.144,0.598,0.32,0.801,0.526c0.205,0.207,0.342,0.448,0.412,0.723c0.069,0.274,0.073,0.594,0.009,0.957l-0.004,0.025
		c-0.073,0.415-0.218,0.786-0.432,1.116c-0.215,0.329-0.481,0.608-0.801,0.837c-0.319,0.228-0.685,0.402-1.094,0.52
		C44.322,193.617,43.884,193.677,43.419,193.677"/>
	<path fill="#929B9B" d="M49.576,184.673h3.504c0.516,0,0.97,0.07,1.364,0.209c0.396,0.139,0.714,0.341,0.961,0.603
		c0.245,0.262,0.415,0.574,0.507,0.938c0.093,0.363,0.099,0.77,0.02,1.217l-0.004,0.025c-0.088,0.499-0.258,0.937-0.511,1.313
		c-0.252,0.377-0.562,0.691-0.929,0.945c-0.365,0.253-0.776,0.446-1.231,0.577c-0.454,0.13-0.927,0.196-1.417,0.196h-1.764
		l-0.503,2.853H48.01L49.576,184.673z M52.14,189.276c0.593,0,1.087-0.148,1.482-0.443c0.393-0.294,0.631-0.673,0.713-1.136
		l0.005-0.025c0.091-0.522-0.013-0.916-0.312-1.181c-0.3-0.266-0.741-0.398-1.326-0.398h-1.815l-0.561,3.183H52.14z"/>
	<path fill="#929B9B" d="M60.258,193.702c-0.686,0-1.292-0.121-1.815-0.362c-0.524-0.241-0.953-0.569-1.287-0.983
		c-0.333-0.414-0.565-0.899-0.697-1.451c-0.131-0.554-0.139-1.143-0.029-1.769l0.004-0.025c0.111-0.626,0.328-1.216,0.654-1.769
		c0.327-0.553,0.733-1.039,1.222-1.458c0.488-0.419,1.037-0.751,1.647-0.996c0.611-0.245,1.259-0.368,1.944-0.368
		s1.29,0.121,1.815,0.362c0.523,0.24,0.952,0.568,1.285,0.982c0.333,0.415,0.566,0.899,0.697,1.453
		c0.131,0.553,0.141,1.143,0.032,1.769l-0.005,0.026c-0.111,0.625-0.328,1.215-0.656,1.769c-0.326,0.554-0.733,1.04-1.221,1.458
		c-0.489,0.419-1.039,0.751-1.648,0.996C61.59,193.579,60.943,193.702,60.258,193.702 M60.538,192.256
		c0.44,0,0.859-0.083,1.256-0.247c0.396-0.165,0.751-0.387,1.063-0.667c0.312-0.28,0.575-0.61,0.789-0.991
		c0.216-0.381,0.362-0.787,0.439-1.22l0.004-0.025c0.076-0.433,0.074-0.841-0.006-1.226c-0.081-0.386-0.228-0.72-0.444-1.005
		c-0.217-0.283-0.497-0.51-0.839-0.679c-0.343-0.17-0.735-0.254-1.173-0.254c-0.44,0-0.86,0.082-1.256,0.247
		c-0.398,0.165-0.753,0.391-1.064,0.674c-0.313,0.284-0.577,0.617-0.793,0.998c-0.216,0.382-0.361,0.787-0.436,1.22l-0.005,0.026
		c-0.077,0.432-0.074,0.838,0.006,1.22c0.08,0.381,0.23,0.716,0.445,1.003c0.216,0.288,0.496,0.515,0.839,0.68
		C59.707,192.173,60.097,192.256,60.538,192.256"/>
	<path fill="#929B9B" d="M67.953,184.673h3.961c0.558,0,1.039,0.078,1.444,0.235c0.405,0.157,0.726,0.374,0.963,0.653
		c0.195,0.245,0.326,0.528,0.396,0.849c0.071,0.321,0.072,0.676,0.004,1.065l-0.005,0.025c-0.128,0.727-0.428,1.313-0.9,1.757
		c-0.47,0.443-1.032,0.755-1.681,0.932l1.807,3.361h-1.854l-1.637-3.095h-1.954l-0.546,3.095h-1.562L67.953,184.673z
		 M71.025,189.073c0.558,0,1.026-0.133,1.403-0.401c0.377-0.266,0.606-0.627,0.687-1.084l0.004-0.025
		c0.086-0.483-0.011-0.848-0.288-1.097c-0.278-0.249-0.709-0.374-1.293-0.374h-2.272l-0.526,2.98H71.025z"/>
	<polygon fill="#929B9B" points="78.616,186.118 75.799,186.118 76.054,184.673 83.263,184.673 83.009,186.118 80.191,186.118 
		78.88,193.55 77.306,193.55 	"/>
</g>
</svg>
